{
    "name": "Blackboard Plus",
    "author": "Jason Lee",
    "maintainers": [
        "Jason Lee <huacnlee@gmail.com>"
    ],
    "semanticClass": "theme.blackboard-plus",
    "blackboard-plus": {
        "base": [
            "#090b18",
            "#F8F8F8",
            "#253B76"
        ]
    },
    "colors": {
        "terminal.background": "#151825",
        "terminal.foreground": "#F8F8F8",
        "terminal.ansiBrightBlack": "#4D4D4D",
        "terminal.ansiBrightRed": "#FF5555",
        "terminal.ansiBrightGreen": "#50FA7B",
        "terminal.ansiBrightYellow": "#61CE3C",
        "terminal.ansiBrightBlue": "#86a7d0",
        "terminal.ansiBrightMagenta": "#61c3fe",
        "terminal.ansiBrightCyan": "#cbfe2a",
        "terminal.ansiBrightWhite": "#BFBFBF",
        "terminal.ansiBlack": "#575757",
        "terminal.ansiRed": "#FF6E67",
        "terminal.ansiGreen": "#5AF78E",
        "terminal.ansiYellow": "#F4F99D",
        "terminal.ansiBlue": "#CAA9FA",
        "terminal.ansiMagenta": "#FF92D0",
        "terminal.ansiCyan": "#9AEDFE",
        "terminal.ansiWhite": "#F8F8F8",
        "contrastBorder": "#191A21",
        "contrastActiveBorder": null,
        "focusBorder": "#595959",
        "foreground": "#F8F8F8",
        "widget.shadow": null,
        "selection.background": "#CAA9FA",
        "errorForeground": "#FF5555",
        "button.background": "#253B76",
        "button.foreground": "#F8F8F8",
        "button.hoverBackground": null,
        "dropdown.background": "#343746",
        "dropdown.border": "#191A21",
        "dropdown.foreground": "#F8F8F8",
        "input.background": "#0C1021",
        "input.foreground": "#F8F8F8",
        "input.border": "#191A21",
        "input.placeholderForeground": "#595959",
        "inputOption.activeBorder": "#86a7d0",
        "inputValidation.infoBackground": null,
        "inputValidation.infoBorder": "#61c3fe",
        "inputValidation.warningBackground": null,
        "inputValidation.warningBorder": "#FFB86C",
        "inputValidation.errorBackground": null,
        "inputValidation.errorBorder": "#FF5555",
        "scrollbar.shadow": null,
        "scrollbarSlider.activeBackground": null,
        "scrollbarSlider.background": null,
        "scrollbarSlider.hoverBackground": null,
        "badge.foreground": "#F8F8F8",
        "badge.background": "#253B76",
        "progressBar.background": "#61c3fe",
        "list.activeSelectionBackground": "#253B76",
        "list.activeSelectionForeground": "#F8F8F8",
        "list.dropBackground": "#253B76",
        "list.focusBackground": "#253B7675",
        "list.highlightForeground": "#cbfe2a",
        "list.hoverBackground": "#253B7675",
        "list.inactiveSelectionBackground": "#253B7675",
        "list.inactiveSelectionForeground": null,
        "list.hoverForeground": null,
        "list.focusForeground": null,
        "activityBar.background": "#1e1f29",
        "activityBar.dropBackground": null,
        "activityBar.foreground": "#F8F8F8",
        "activityBar.border": null,
        "activityBarBadge.background": "#61c3fe",
        "activityBarBadge.foreground": "#F8F8F8",
        "sideBar.background": "#151825",
        "sideBar.foreground": null,
        "sideBar.border": null,
        "sideBarTitle.foreground": "#0c1022",
        "sideBarSectionHeader.background": null,
        "sideBarSectionHeader.foreground": null,
        "editorGroup.background": null,
        "editorGroup.border": "#86a7d0",
        "editorGroup.dropBackground": "#253B76",
        "editorGroupHeader.noTabsBackground": null,
        "editorGroupHeader.tabsBackground": "#191A21",
        "editorGroupHeader.tabsBorder": null,
        "tab.activeBackground": "#0C1021",
        "tab.activeForeground": "#F8F8F8",
        "tab.border": "#191A21",
        "tab.inactiveBackground": "#1e1f29",
        "tab.inactiveForeground": "#595959",
        "tab.unfocusedActiveForeground": null,
        "tab.unfocusedInactiveForeground": null,
        "editor.foreground": "#F8F8F8",
        "editor.background": "#090b18",
        "editorLineNumber.foreground": "#595959",
        "editorCursor.foreground": null,
        "editor.selectionBackground": "#6b8e23",
        "editor.selectionHighlightBackground": "#ffff02",
        "editor.inactiveSelectionBackground": null,
        "editor.wordHighlightBackground": "#cbfe2a50",
        "editor.wordHighlightStrongBackground": "#50FA7B50",
        "editor.findMatchBackground": "#50FA7B50",
        "editor.findMatchHighlightBackground": "#FFFFFF40",
        "editor.findRangeHighlightBackground": "#253B7675",
        "editor.hoverHighlightBackground": "#191A21",
        "editor.lineHighlightBackground": "#666666",
        "editor.lineHighlightBorder": null,
        "editorLink.activeForeground": "#cbfe2a",
        "editor.rangeHighlightBackground": "#86a7d015",
        "editorWhitespace.foreground": null,
        "editorIndentGuide.background": null,
        "editorRuler.foreground": null,
        "editorCodeLens.foreground": "#FFB86C",
        "editorBracketMatch.background": null,
        "editorBracketMatch.border": null,
        "editorOverviewRuler.border": "#191A21",
        "editorError.foreground": "#FF5555",
        "editorError.border": null,
        "editorWarning.foreground": "#cbfe2a",
        "editorWarning.border": null,
        "editorGutter.background": null,
        "editorGutter.modifiedBackground": "#cbfe2a80",
        "editorGutter.addedBackground": "#50FA7B80",
        "editorGutter.deletedBackground": "#FF555580",
        "diffEditor.insertedTextBackground": "#50FA7B20",
        "diffEditor.insertedTextBorder": null,
        "diffEditor.removedTextBackground": "#FF555550",
        "diffEditor.removedTextBorder": null,
        "editorWidget.background": "#21222C",
        "editorWidgetBorder": null,
        "editorSuggestWidget.background": "#21222C",
        "editorSuggestWidget.border": null,
        "editorSuggestWidget.foreground": "#F8F8F8",
        "editorSuggestWidget.highlightForeground": null,
        "editorSuggestWidget.selectedBackground": "#253B76",
        "editorHoverWidget.background": "#0C1021",
        "editorHoverWidget.border": "#595959",
        "debugExceptionWidget.background": null,
        "debugExceptionWidget.border": null,
        "editorMarkerNavigation.background": "#21222C",
        "editorMarkerNavigationError.background": null,
        "editorMarkerNavigationWarning.background": null,
        "peekView.border": "#253B76",
        "peekViewEditor.background": "#0C1021",
        "peekViewEditorGutter.background": null,
        "peekViewEditor.matchHighlightBackground": "#61CE3C80",
        "peekViewResult.background": "#21222C",
        "peekViewResult.fileForeground": "#F8F8F8",
        "peekViewResult.lineForeground": "#F8F8F8",
        "peekViewResult.matchHighlightBackground": "#61CE3C80",
        "peekViewResult.selectionBackground": "#253B76",
        "peekViewResult.selectionForeground": "#F8F8F8",
        "peekViewTitle.background": "#191A21",
        "peekViewTitleDescription.foreground": "#595959",
        "peekViewTitleLabel.foreground": "#F8F8F8",
        "merge.currentHeaderBackground": "#50FA7B90",
        "merge.currentContentBackground": null,
        "merge.incomingHeaderBackground": "#86a7d090",
        "merge.incomingContentBackground": null,
        "merge.border": null,
        "editorOverviewRuler.currentContentForeground": "#50FA7B",
        "editorOverviewRuler.incomingContentForeground": "#86a7d0",
        "panel.background": "#0C1021",
        "panel.border": "#86a7d0",
        "panelTitle.activeBorder": "#61c3fe",
        "panelTitle.activeForeground": "#F8F8F8",
        "panelTitle.inactiveForeground": "#595959",
        "statusBar.background": "#191A21",
        "statusBar.foreground": "#F8F8F8",
        "statusBar.debuggingBackground": "#FF5555",
        "statusBar.debuggingForeground": "#191A21",
        "statusBar.noFolderBackground": "#191A21",
        "statusBar.noFolderForeground": "#F8F8F8",
        "statusBarItem.activeBackground": null,
        "statusBarItem.hoverBackground": null,
        "statusBarItem.prominentBackground": "#FF5555",
        "statusBarItem.prominentHoverBackground": "#FF6E67",
        "statusBar.border": null,
        "titleBar.activeBackground": "#21222C",
        "titleBar.activeForeground": "#F8F8F8",
        "titleBar.inactiveBackground": "#191A21",
        "titleBar.inactiveForeground": "#595959",
        "notification.background": "#0C1021",
        "notification.foreground": "#F8F8F8",
        "extensionButton.prominentForeground": "#F8F8F8",
        "extensionButton.prominentBackground": "#50FA7B",
        "extensionButton.prominentHoverBackground": "#5AF78E",
        "pickerGroup.border": "#86a7d0",
        "pickerGroup.foreground": "#cbfe2a",
        "debugToolBar.background": "#21222C",
        "welcomePage.buttonBackground": null,
        "welcomePage.buttonHoverBackground": null,
        "walkThrough.embeddedEditorBackground": "#21222C"
    },
    "tokenColors": [
        {
            "name": "Other Variables",
            "scope": "variable.other",
            "settings": {
                "foreground": "#7D9EC0"
            }
        },
        {
            "name": "Other Variables",
            "scope": "variable.other.private",
            "settings": {
                "foreground": "#647e99"
            }
        },
        {
            "name": "Variables: Bool",
            "scope": "constant.language.boolean",
            "settings": {
                "foreground": "#A6D996"
            }
        },
        {
            "name": "Base Functions",
            "scope": [
                "entity.name.function",
                "storage.type.property",
                "meta.function-call"
            ],
            "settings": {
                "foreground": "#47A9FF"
            }
        },
        {
            "name": "Custom Functions",
            "scope": "support.function",
            "settings": {
                "foreground": "#20D6D6"
            }
        },
        {
            "name": "Operators",
            "scope": "keyword.operator",
            "settings": {
                "foreground": "#525252"
            }
        },
        {
            "name": "Control Statements",
            "scope": "keyword.control",
            "settings": {
                "foreground": "#C72828"
            }
        },
        {
            "name": "Predefined vars",
            "scope": [
                "variable.language",
                "storage.modifier"
            ],
            "settings": {
                "foreground": "#FF9D00"
            }
        },
        {
            "name": "Comments",
            "scope": "comment",
            "settings": {
                "foreground": "#5AA641"
            }
        },
        {
            "name": "Digits",
            "scope": "constant.numeric",
            "settings": {
                "foreground": "#91C77F"
            }
        },
        {
            "name": "Digits",
            "scope": "string",
            "settings": {
                "foreground": "#D97E5F"
            }
        },
        {
            "name": "Function Manipulation",
            "scope": "meta.function-call",
            "settings": {
                "foreground": "#AB58C4"
            }
        },
        {
            "scope": [
                "emphasis"
            ],
            "settings": {
                "fontStyle": "italic"
            }
        },
        {
            "scope": [
                "strong"
            ],
            "settings": {
                "fontStyle": "bold"
            }
        },
        {
            "scope": [
                "header"
            ],
            "settings": {
                "foreground": "#86a7d0"
            }
        },
        {
            "scope": [
                "source"
            ],
            "settings": {
                "foreground": "#F8F8F8"
            }
        },
        {
            "scope": [
                "meta.diff",
                "meta.diff.header"
            ],
            "settings": {
                "foreground": "#595959"
            }
        },
        {
            "scope": [
                "markup.inserted"
            ],
            "settings": {
                "foreground": "#50FA7B"
            }
        },
        {
            "scope": [
                "markup.deleted"
            ],
            "settings": {
                "foreground": "#FF5555"
            }
        },
        {
            "scope": [
                "markup.changed"
            ],
            "settings": {
                "foreground": "#FFB86C"
            }
        },
        {
            "scope": [
                "invalid"
            ],
            "settings": {
                "background": "#FF5555",
                "foreground": "#F8F8F8"
            }
        },
        {
            "scope": [
                "invalid.deprecated"
            ],
            "settings": {
                "background": "#86a7d0",
                "foreground": "#F8F8F8"
            }
        },
        {
            "scope": [
                "entity.name.filename"
            ],
            "settings": {
                "foreground": "#61CE3C"
            }
        },
        {
            "scope": [
                "markup.error"
            ],
            "settings": {
                "foreground": "#FF5555"
            }
        },
        {
            "name": "Underlined markup",
            "scope": [
                "markup.underline"
            ],
            "settings": {
                "fontStyle": "underline"
            }
        },
        {
            "name": "Bold markup",
            "scope": [
                "markup.bold"
            ],
            "settings": {
                "fontStyle": "bold",
                "foreground": "#FFB86C"
            }
        },
        {
            "name": "Markup headings",
            "scope": [
                "markup.heading"
            ],
            "settings": {
                "fontStyle": "bold",
                "foreground": "#86a7d0"
            }
        },
        {
            "name": "Markup italic",
            "scope": [
                "markup.italic"
            ],
            "settings": {
                "foreground": "#61CE3C",
                "fontStyle": "italic"
            }
        },
        {
            "name": "Bullets, lists (prose)",
            "scope": [
                "beginning.punctuation.definition.list.markdown",
                "beginning.punctuation.definition.quote.markdown",
                "punctuation.definition.link.restructuredtext"
            ],
            "settings": {
                "foreground": "#cbfe2a"
            }
        },
        {
            "name": "Inline code (prose)",
            "scope": [
                "markup.inline.raw",
                "markup.raw.restructuredtext"
            ],
            "settings": {
                "foreground": "#50FA7B"
            }
        },
        {
            "name": "Links (prose)",
            "scope": [
                "markup.underline.link",
                "markup.underline.link.image"
            ],
            "settings": {
                "foreground": "#cbfe2a"
            }
        },
        {
            "name": "Link text, image alt text (prose)",
            "scope": [
                "meta.link.reference.def.restructuredtext",
                "punctuation.definition.directive.restructuredtext",
                "string.other.link.description",
                "string.other.link.title"
            ],
            "settings": {
                "foreground": "#61c3fe"
            }
        },
        {
            "name": "Blockquotes (prose)",
            "scope": [
                "entity.name.directive.restructuredtext",
                "markup.quote"
            ],
            "settings": {
                "foreground": "#61CE3C",
                "fontStyle": "italic"
            }
        },
        {
            "name": "Horizontal rule (prose)",
            "scope": [
                "meta.separator.markdown"
            ],
            "settings": {
                "foreground": "#595959"
            }
        },
        {
            "name": "Code blocks without scoped language (prose)",
            "scope": [
                "fenced_code.block.language",
                "markup.raw.inner.restructuredtext"
            ],
            "settings": {
                "foreground": "#FFB86C"
            }
        },
        {
            "name": "Prose constants",
            "scope": [
                "punctuation.definition.constant.restructuredtext"
            ],
            "settings": {
                "foreground": "#86a7d0"
            }
        },
        {
            "name": "Braces in markdown headings",
            "scope": [
                "markup.heading.markdown punctuation.definition.string.begin",
                "markup.heading.markdown punctuation.definition.string.end"
            ],
            "settings": {
                "foreground": "#86a7d0"
            }
        },
        {
            "name": "Braces in markdown paragraphs",
            "scope": [
                "meta.paragraph.markdown punctuation.definition.string.begin",
                "meta.paragraph.markdown punctuation.definition.string.end"
            ],
            "settings": {
                "foreground": "#F8F8F8"
            }
        },
        {
            "name": "Braces in markdown blockquotes",
            "scope": [
                "markup.quote.markdown meta.paragraph.markdown punctuation.definition.string.begin",
                "markup.quote.markdown meta.paragraph.markdown punctuation.definition.string.end"
            ],
            "settings": {
                "foreground": "#61CE3C"
            }
        },
        {
            "name": "User-defined class names",
            "scope": [
                "entity.name.type.class"
            ],
            "settings": {
                "foreground": "#61c3fe",
                "fontStyle": "normal"
            }
        },
        {
            "name": "this, super, self, etc.",
            "scope": [
                "keyword.expressions-and-types.swift",
                "keyword.other.this",
                "variable.language",
                "variable.other.readwrite.instance.ruby",
                "variable.parameter.function.language.special"
            ],
            "settings": {
                "foreground": "#86a7d0"
            }
        },
        {
            "name": "Inherited classes",
            "scope": [
                "entity.other.inherited-class"
            ],
            "settings": {
                "foreground": "#cbfe2a"
            }
        },
        {
            "name": "Comments",
            "scope": [
                "comment"
            ],
            "settings": {
                "foreground": "#595959"
            }
        },
        {
            "name": "JSDoc-style comment keywords/classes",
            "scope": [
                "comment keyword.codetag.notation",
                "comment.block.documentation keyword",
                "comment.block.documentation storage.type.class"
            ],
            "settings": {
                "foreground": "#595959",
                "fontStyle": "italic"
            }
        },
        {
            "name": "JSDoc-style comment parameters",
            "scope": [
                "comment.block.documentation variable"
            ],
            "settings": {
                "foreground": "#595959",
                "fontStyle": "italic"
            }
        },
        {
            "name": "Constants",
            "scope": [
                "constant",
                "variable.other.constant"
            ],
            "settings": {
                "foreground": "#86a7d0"
            }
        },
        {
            "name": "Constant escape sequences",
            "scope": [
                "constant.character.escape",
                "constant.character.string.escape",
                "constant.regexp"
            ],
            "settings": {
                "foreground": "#6b8e23"
            }
        },
        {
            "name": "HTML tags",
            "scope": [
                "entity.name.tag"
            ],
            "settings": {
                "foreground": "#61c3fe"
            }
        },
        {
            "name": "CSS attribute parent selectors ('&')",
            "scope": [
                "entity.other.attribute-name.parent-selector"
            ],
            "settings": {
                "foreground": "#666666"
            }
        },
        {
            "name": "HTML/CSS attribute names",
            "scope": [
                "entity.other.attribute-name"
            ],
            "settings": {
                "foreground": "#50FA7B"
            }
        },
        {
            "name": "Function names",
            "scope": [
                "entity.name.function",
                "meta.function-call.generic",
                "meta.function-call.object",
                "meta.function-call.php",
                "meta.function-call.static",
                "meta.method-call.java meta.method",
                "meta.method.groovy",
                "support.function.any-method.lua",
                "keyword.operator.function.infix"
            ],
            "settings": {
                "foreground": "#ffde02"
            }
        },
        {
            "name": "Function parameters",
            "scope": [
                "entity.name.variable.parameter",
                "meta.at-rule.function variable",
                "meta.at-rule.mixin variable",
                "meta.function.arguments variable.other.php",
                "meta.selectionset.graphql meta.arguments.graphql variable.arguments.graphql",
                "variable.parameter"
            ],
            "settings": {
                "foreground": "#61c3fe"
            }
        },
        {
            "name": "Decorators",
            "scope": [
                "meta.decorator variable.other.readwrite"
            ],
            "settings": {
                "foreground": "#50FA7B"
            }
        },
        {
            "name": "Keywords",
            "scope": [
                "keyword",
                "punctuation.definition.keyword"
            ],
            "settings": {
                "foreground": "#61c3fe"
            }
        },
        {
            "name": "Keyword \"new\"",
            "scope": [
                "keyword.control.new",
                "keyword.operator.new"
            ]
        },
        {
            "name": "Generic selectors (CSS/SCSS/Less/Stylus)",
            "scope": [
                "meta.selector"
            ],
            "settings": {
                "foreground": "#61c3fe"
            }
        },
        {
            "name": "Language Built-ins",
            "scope": [
                "support"
            ],
            "settings": {
                "foreground": "#cbfe2a"
            }
        },
        {
            "name": "Built-in magic functions and constants",
            "scope": [
                "support.function.magic",
                "support.variable",
                "variable.other.predefined"
            ],
            "settings": {
                "fontStyle": "regular",
                "foreground": "#86a7d0"
            }
        },
        {
            "name": "Built-in functions / properties",
            "scope": [
                "support.function",
                "support.type.property-name"
            ],
            "settings": {
                "fontStyle": "regular"
            }
        },
        {
            "name": "Separators (key/value, namespace, inheritance, pointer, hash, slice, etc)",
            "scope": [
                "constant.other.symbol.hashkey punctuation.definition.constant.ruby",
                "entity.other.attribute-name.placeholder punctuation",
                "entity.other.attribute-name.pseudo-class punctuation",
                "entity.other.attribute-name.pseudo-element punctuation",
                "meta.group.double.toml",
                "meta.group.toml",
                "meta.object-binding-pattern-variable punctuation.destructuring",
                "punctuation.colon.graphql",
                "punctuation.definition.block.scalar.folded.yaml",
                "punctuation.definition.block.scalar.literal.yaml",
                "punctuation.definition.block.sequence.item.yaml",
                "punctuation.definition.entity.other.inherited-class",
                "punctuation.function.swift",
                "punctuation.separator.dictionary.key-value",
                "punctuation.separator.hash",
                "punctuation.separator.inheritance",
                "punctuation.separator.key-value",
                "punctuation.separator.key-value.mapping.yaml",
                "punctuation.separator.namespace",
                "punctuation.separator.pointer-access",
                "punctuation.separator.slice",
                "string.unquoted.heredoc punctuation.definition.string",
                "support.other.chomping-indicator.yaml"
            ],
            "settings": {
                "foreground": "#61c3fe"
            }
        },
        {
            "name": "Brackets, braces, parens, etc.",
            "scope": [
                "keyword.operator.other.powershell",
                "keyword.other.statement-separator.powershell",
                "meta.brace.round",
                "meta.function-call punctuation",
                "punctuation.definition.arguments.begin",
                "punctuation.definition.arguments.end",
                "punctuation.definition.entity.begin",
                "punctuation.definition.entity.end",
                "punctuation.definition.tag.cs",
                "punctuation.definition.type.begin",
                "punctuation.definition.type.end",
                "punctuation.section.scope.begin",
                "punctuation.section.scope.end",
                "storage.type.generic.java"
            ],
            "settings": {
                "foreground": "#F8F8F8"
            }
        },
        {
            "name": "Variable interpolation operators",
            "scope": [
                "meta.string-contents.quoted.double punctuation.definition.variable",
                "punctuation.definition.interpolation.begin",
                "punctuation.definition.interpolation.end",
                "punctuation.definition.template-expression.begin",
                "punctuation.definition.template-expression.end",
                "punctuation.section.embedded.begin",
                "punctuation.section.embedded.coffee",
                "punctuation.section.embedded.end",
                "punctuation.section.embedded.end source.php",
                "punctuation.section.embedded.end source.ruby"
            ],
            "settings": {
                "foreground": "#61c3fe"
            }
        },
        {
            "name": "Keys (serializable languages)",
            "scope": [
                "entity.name.function.target.makefile",
                "entity.name.section.toml",
                "entity.name.tag.yaml",
                "variable.other.key.toml"
            ],
            "settings": {
                "foreground": "#cbfe2a"
            }
        },
        {
            "name": "Dates / timestamps (serializable languages)",
            "scope": [
                "constant.other.date",
                "constant.other.timestamp"
            ],
            "settings": {
                "foreground": "#FFB86C"
            }
        },
        {
            "name": "YAML aliases",
            "scope": [
                "variable.other.alias.yaml"
            ],
            "settings": {
                "foreground": "#50FA7B"
            }
        },
        {
            "name": "Storage",
            "scope": [
                "storage",
                "meta.implementation storage.type.objc",
                "meta.interface-or-protocol storage.type.objc",
                "source.groovy storage.type.def"
            ],
            "settings": {
                "fontStyle": "regular",
                "foreground": "#61c3fe"
            }
        },
        {
            "name": "Types",
            "scope": [
                "entity.name.type",
                "keyword.primitive-datatypes.swift",
                "keyword.type.cs",
                "meta.protocol-list.objc",
                "meta.return-type.objc",
                "source.go storage.type",
                "source.groovy storage.type",
                "source.java storage.type",
                "source.powershell entity.other.attribute-name",
                "storage.class.std.rust",
                "storage.type.attribute.swift",
                "storage.type.c",
                "storage.type.core.rust",
                "storage.type.cs",
                "storage.type.groovy",
                "storage.type.objc",
                "storage.type.php",
                "storage.type.haskell"
            ],
            "settings": {
                "foreground": "#ff6601"
            }
        },
        {
            "name": "Generics, templates, and mapped type declarations",
            "scope": [
                "entity.name.type.type-parameter",
                "meta.indexer.mappedtype.declaration entity.name.type",
                "meta.type.parameters entity.name.type"
            ],
            "settings": {
                "foreground": "#FFB86C"
            }
        },
        {
            "name": "Modifiers",
            "scope": [
                "storage.modifier"
            ],
            "settings": {
                "foreground": "#61c3fe"
            }
        },
        {
            "name": "Strings",
            "scope": [
                "string"
            ],
            "settings": {
                "foreground": "#61CE3C"
            }
        },
        {
            "name": "String (RexExp)",
            "scope": [
                "string.regexp"
            ],
            "settings": {
                "foreground": "#61CE3C"
            }
        },
        {
            "name": "String quotes (temporary vscode fix)",
            "scope": [
                "punctuation.definition.string.begin",
                "punctuation.definition.string.end"
            ],
            "settings": {
                "foreground": "#E9F284"
            }
        },
        {
            "name": "Variables and object properties",
            "scope": [
                "variable",
                "constant.other.key.perl",
                "support.variable.property"
            ],
            "settings": {
                "foreground": "#F8F8F8"
            }
        },
        {
            "name": "Destructuring / aliasing reference name (LHS)",
            "scope": [
                "meta.import variable.other.readwrite",
                "meta.export variable.other.readwrite",
                "meta.object-binding-pattern-variable variable.object.property",
                "meta.variable.assignment.destructured.object.coffee variable"
            ],
            "settings": {
                "foreground": "#ffee15"
            }
        },
        {
            "name": "Destructuring / aliasing variable name (RHS)",
            "scope": [
                "meta.import variable.other.readwrite.alias",
                "meta.export variable.other.readwrite.alias",
                "meta.variable.assignment.destructured.object.coffee variable variable"
            ],
            "settings": {
                "fontStyle": "normal",
                "foreground": "#F8F8F8"
            }
        },
        {
            "name": "GraphQL keys",
            "scope": [
                "meta.selectionset.graphql variable"
            ],
            "settings": {
                "foreground": "#61CE3C"
            }
        },
        {
            "name": "GraphQL function arguments",
            "scope": [
                "meta.selectionset.graphql meta.arguments variable"
            ],
            "settings": {
                "foreground": "#F8F8F8"
            }
        },
        {
            "name": "GraphQL fragment name (definition)",
            "scope": [
                "entity.name.fragment.graphql",
                "variable.fragment.graphql"
            ],
            "settings": {
                "foreground": "#cbfe2a"
            }
        },
        {
            "name": "Edge cases (foreground color resets)",
            "scope": [
                "constant.other.symbol.hashkey.ruby",
                "keyword.operator.dereference.java",
                "keyword.operator.navigation.groovy",
                "meta.scope.for-loop.shell punctuation.definition.string.begin",
                "meta.scope.for-loop.shell punctuation.definition.string.end",
                "meta.scope.for-loop.shell string",
                "storage.modifier.import",
                "punctuation.section.embedded.begin.tsx",
                "punctuation.section.embedded.end.tsx",
                "punctuation.section.embedded.begin.jsx",
                "punctuation.section.embedded.end.jsx",
                "punctuation.separator.list.comma.css",
                "constant.language.empty-list.haskell"
            ],
            "settings": {
                "foreground": "#F8F8F8"
            }
        },
        {
            "name": "Shell variables prefixed with \"$\" (edge case)",
            "scope": [
                "source.shell variable.other"
            ],
            "settings": {
                "foreground": "#86a7d0"
            }
        },
        {
            "name": "Powershell constants mistakenly scoped to `support`, rather than `constant` (edge)",
            "scope": [
                "support.constant"
            ],
            "settings": {
                "fontStyle": "normal",
                "foreground": "#86a7d0"
            }
        },
        {
            "name": "Makefile prerequisite names",
            "scope": [
                "meta.scope.prerequisites.makefile"
            ],
            "settings": {
                "foreground": "#61CE3C"
            }
        }
    ]
}
