{
	"name": "Ruie Dark",
	"type": "dark",
	"colors": {
		// Base Colors
		// https: //code.visualstudio.com/docs/getstarted/theme-color-reference#_base-colors
		"focusBorder": "#383838",
		"foreground": "#D4D4D4",
		"widget.shadow": "#FFFFFF00",
		"selection.background": "#FAC863",
		"errorForeground": "#E15A60",
		// Button Control
		// https: //code.visualstudio.com/docs/getstarted/theme-color-reference#_button-control
		"button.background": "#A94348",
		"button.foreground": "#D4D4D4",
		"button.hoverBackground": "#E15A60",
		// Dropdown Control
		// https: //code.visualstudio.com/docs/getstarted/theme-color-reference#_dropdown-control
		"dropdown.background": "#3c3c3c",
		"dropdown.border": "#383838",
		"dropdown.foreground": "#D4D4D4",
		// Input Control
		// https: //code.visualstudio.com/docs/getstarted/theme-color-reference#_input-control
		"input.background": "#212121",
		"input.border": "#383838",
		"input.foreground": "#D4D4D4",
		"input.placeholderForeground": "#7F7F7F",
		"inputOption.activeBorder": "#7F7F7F",
		"inputValidation.errorBackground": "#A94348",
		"inputValidation.errorBorder": "#383838",
		"inputValidation.infoBackground": "#A94348",
		"inputValidation.infoBorder": "#383838",
		"inputValidation.warningBackground": "#A94348",
		"inputValidation.warningBorder": "#383838",
		// Scroll Bar Control
		// https: //code.visualstudio.com/docs/getstarted/theme-color-reference#_scroll-bar-control
		"scrollbar.shadow": "#FFFFFF00",
		"scrollbarSlider.activeBackground": "#FFFFFF2E",
		"scrollbarSlider.background": "#FFFFFF0F",
		"scrollbarSlider.hoverBackground": "#FFFFFF1F",
		// Badge
		// https: //code.visualstudio.com/docs/getstarted/theme-color-reference#_badge
		"badge.foreground": "#D4D4D4",
		"badge.background": "#383838",
		// Progress Bar
		// https: //code.visualstudio.com/docs/getstarted/theme-color-reference#_progress-bar
		"progressBar.background": "#FAC863",
		// Lists and Trees
		// https: //code.visualstudio.com/docs/getstarted/theme-color-reference#_lists-and-trees
		"list.activeSelectionBackground": "#383838",
		"list.activeSelectionForeground": "#D4D4D4",
		"list.dropBackground": "#383838",
		"list.focusBackground": "#383838",
		"list.highlightForeground": "#D4D4D4",
		"list.hoverBackground": "#383838",
		"list.inactiveSelectionBackground": "#383838",
		"list.inactiveSelectionForeground": "#D4D4D4",
		"list.hoverForeground": "#D4D4D4",
		"list.focusForeground": "#D4D4D4",
		"list.errorForeground": "#E15A60",
		"list.warningForeground": "#FAC863",
		// Activity Bar
		// https: //code.visualstudio.com/docs/getstarted/theme-color-reference#_activity-bar
		"activityBar.background": "#212121",
		"activityBar.dropBackground": "#212121",
		"activityBar.foreground": "#D4D4D4",
		"activityBar.border": "#383838",
		"activityBarBadge.background": "#5986B3",
		"activityBarBadge.foreground": "#D4D4D4",
		// Side Bar
		// https: //code.visualstudio.com/docs/getstarted/theme-color-reference#_side-bar
		"sideBar.background": "#212121",
		"sideBar.foreground": "#D4D4D4",
		"sideBar.border": "#383838",
		"sideBarTitle.foreground": "#7F7F7F",
		"sideBarSectionHeader.background": "#383838",
		"sideBarSectionHeader.foreground": "#D4D4D4",
		// Editor Groups & Tabs
		// https: //code.visualstudio.com/docs/getstarted/theme-color-reference#_editor-groups-tabs
		"editorGroup.background": "#212121",
		"editorGroup.border": "#383838",
		"editorGroup.dropBackground": "#383838",
		"editorGroupHeader.noTabsBackground": "#383838",
		"editorGroupHeader.tabsBackground": "#212121",
		"editorGroupHeader.tabsBorder": "#383838",
		"tab.activeBackground": "#212121",
		"tab.activeForeground": "#D4D4D4",
		"tab.border": "#383838",
		"tab.inactiveBackground": "#212121",
		"tab.inactiveForeground": "#7F7F7F",
		"tab.unfocusedActiveForeground": "#D4D4D4",
		"tab.unfocusedInactiveForeground": "#7F7F7F",
		"tab.hoverBackground": "#212121",
		"tab.unfocusedHoverBackground": "#212121",
		// "tab.activeBorderTop": "#383838",
		// "tab.unfocusedActiveBorderTop": "#383838",
		// "tab.hoverBorder": "#383838",
		// "tab.unfocusedHoverBorder": "#383838",
		// "editor.selectionHighlightBorder": "#f00",
		// "editor.wordHighlightBorder": "#f00",
		// "editor.wordHighlightStrongBorder": "#f00",
		// "editor.findMatchBorder": "#7F7F7F",
		// "editor.findMatchHighlightBorder": "#f09",
		// "editor.findRangeHighlightBorder": "#f00",
		// "editor.rangeHighlightBorder": "#f00",
		// Editor Colors
		// https: //code.visualstudio.com/docs/getstarted/theme-color-reference#_editor-colors
		"editor.background": "#212121",
		"editor.foreground": "#D4D4D4",
		"editorLineNumber.foreground": "#545454",
		"editorLineNumber.activeForeground": "#7F7F7F",
		"editorCursor.foreground": "#ffcc00",
		"editor.selectionBackground": "#FFFFFF3D",
		// "editor.selectionHighlightBackground": "#FFFFFF3D",
		"editor.inactiveSelectionBackground": "#FFFFFF1F",
		"editor.wordHighlightBackground": "#FFFFFF00",
		"editor.wordHighlightStrongBackground": "#FFFFFF00",
		"editor.findMatchBackground": "#FFFFFF3D",
		"editor.findMatchHighlightBackground": "#FFFFFF1F",
		// "editor.findRangeHighlightBackground": "#FFFFFF1F",
		"editor.hoverHighlightBackground": "#FFFFFF1F",
		"editor.lineHighlightBackground": "#FFFFFF0F",
		// "editor.lineHighlightBorder": "#",
		"editorLink.activeForeground": "#6699CC",
		"editor.rangeHighlightBackground": "#383838",
		"editorWhitespace.foreground": "#545454",
		"editorIndentGuide.background": "#FFFFFF1F",
		"editorIndentGuide.activeBackground": "#7F7F7F",
		"editorRuler.foreground": "#FFFFFF1F",
		"editorCodeLens.foreground": "#7F7F7F",
		"editorBracketMatch.background": "#FFFFFF00",
		"editorBracketMatch.border": "#FFFFFF4D",
		"editorOverviewRuler.border": "#383838",
		"editorOverviewRuler.findMatchForeground": "#FFFFFF0F",
		"editorOverviewRuler.rangeHighlightForeground": "#FFFFFF0F",
		"editorOverviewRuler.selectionHighlightForeground": "#FFFFFF0F",
		"editorOverviewRuler.wordHighlightForeground": "#FFFFFF0F",
		"editorOverviewRuler.wordHighlightStrongForeground": "#FFFFFF0F",
		"editorOverviewRuler.modifiedForeground": "#6699CC",
		"editorOverviewRuler.addedForeground": "#99C794",
		"editorOverviewRuler.deletedForeground": "#E15A60",
		"editorOverviewRuler.errorForeground": "#E15A60",
		"editorOverviewRuler.warningForeground": "#FAC863",
		"editorOverviewRuler.infoForeground": "#6699CC",
		"editorError.foreground": "#E15A60",
		"editorError.border": "#212121",
		"editorWarning.foreground": "#FAC863",
		"editorWarning.border": "#212121",
		"editorGutter.background": "#212121",
		"editorGutter.modifiedBackground": "#6699CC",
		"editorGutter.addedBackground": "#99C794",
		"editorGutter.deletedBackground": "#E15A60",
		// Diff Editor Colors
		// https: //code.visualstudio.com/docs/getstarted/theme-color-reference#_diff-editor-colors
		"diffEditor.insertedTextBackground": "#3D4F3B",
		"diffEditor.insertedTextBorder": "#FFFFFF4D",
		"diffEditor.removedTextBackground": "#5E2629",
		"diffEditor.removedTextBorder": "#FFFFFF4D",
		// Editor Widget Colors
		// https: //code.visualstudio.com/docs/getstarted/theme-color-reference#_editor-widget-colors
		"editorWidget.background": "#212121",
		"editorWidget.border": "#383838",
		"editorSuggestWidget.background": "#212121",
		"editorSuggestWidget.border": "#383838",
		"editorSuggestWidget.foreground": "#D4D4D4",
		// "editorSuggestWidget.highlightForeground": "#FF0000",
		"editorSuggestWidget.selectedBackground": "#383838",
		"editorHoverWidget.background": "#212121",
		"editorHoverWidget.border": "#383838",
		"debugExceptionWidget.background": "#212121",
		"debugExceptionWidget.border": "#383838",
		"editorMarkerNavigation.background": "#212121",
		"editorMarkerNavigationError.background": "#E15A60",
		"editorMarkerNavigationWarning.background": "#FAC863",
		// Peek View Colors
		// https: //code.visualstudio.com/docs/getstarted/theme-color-reference#_peek-view-colors
		"peekView.border": "#383838",
		"peekViewEditor.background": "#1D2325",
		"peekViewEditorGutter.background": "#1D2325",
		"peekViewEditor.matchHighlightBackground": "#FFFFFF1F",
		"peekViewResult.background": "#1D2325",
		"peekViewResult.fileForeground": "#D4D4D4",
		"peekViewResult.lineForeground": "#D4D4D4",
		"peekViewResult.matchHighlightBackground": "#FFFFFF1F",
		"peekViewResult.selectionBackground": "#383838",
		"peekViewResult.selectionForeground": "#D4D4D4",
		"peekViewTitle.background": "#1D2325",
		"peekViewTitleDescription.foreground": "#7F7F7F",
		"peekViewTitleLabel.foreground": "#D4D4D4",
		// Merge Conflicts
		// https: //code.visualstudio.com/docs/getstarted/theme-color-reference#_merge-conflicts
		"merge.currentHeaderBackground": "#1D2325",
		"merge.currentContentBackground": "#1D2325",
		"merge.incomingHeaderBackground": "#1D2325",
		"merge.incomingContentBackground": "#1D2325",
		"merge.border": "#383838",
		"editorOverviewRuler.currentContentForeground": "#A94348",
		"editorOverviewRuler.incomingContentForeground": "#A94348",
		// Panel Colors
		// https: //code.visualstudio.com/docs/getstarted/theme-color-reference#_panel-colors
		"panel.background": "#212121",
		"panel.border": "#383838",
		"panelTitle.activeBorder": "#3f3f3f",
		"panelTitle.activeForeground": "#D4D4D4",
		"panelTitle.inactiveForeground": "#7F7F7F",
		// Status Bar Colors
		// https: //code.visualstudio.com/docs/getstarted/theme-color-reference#_status-bar-colors
		"statusBar.background": "#212121",
		"statusBar.foreground": "#7F7F7F",
		"statusBar.debuggingBackground": "#212121",
		"statusBar.debuggingForeground": "#D4D4D4",
		"statusBar.noFolderForeground": "#7F7F7F",
		"statusBar.noFolderBackground": "#212121",
		"statusBarItem.activeBackground": "#212121",
		"statusBarItem.hoverBackground": "#212121",
		"statusBarItem.prominentBackground": "#242B2E",
		"statusBarItem.prominentHoverBackground": "#242B2E",
		"statusBar.border": "#383838",
		// Title Bar Colors (macOS)
		// https: //code.visualstudio.com/docs/getstarted/theme-color-reference#_title-bar-colors-macos
		"titleBar.activeBackground": "#212121",
		"titleBar.activeForeground": "#7F7F7F",
		"titleBar.inactiveBackground": "#212121",
		"titleBar.inactiveForeground": "#7F7F7F",
		"titleBar.border": "#383838",
		// Notification Dialog Colors
		// https://code.visualstudio.com/docs/getstarted/theme-color-reference#_notification-colors
		"notificationCenter.border": "#383838",
		"notificationCenterHeader.foreground": "#D4D4D4",
		"notificationCenterHeader.background": "#1D2325",
		"notificationToast.border": "#383838",
		"notifications.foreground": "#D4D4D4",
		"notifications.background": "#1D2325",
		"notifications.border": "#383838",
		"notificationLink.foreground": "#6699CC",
		// Extensions
		// https: //code.visualstudio.com/docs/getstarted/theme-color-reference#_extensions
		"extensionButton.prominentForeground": "#D4D4D4",
		"extensionButton.prominentBackground": "#A94348",
		"extensionButton.prominentHoverBackground": "#A94348",
		// Quick Picker
		// https: //code.visualstudio.com/docs/getstarted/theme-color-reference#_quick-picker
		"pickerGroup.border": "#383838",
		"pickerGroup.foreground": "#7F7F7F",
		// Integrated Terminal Colors
		// https: //code.visualstudio.com/docs/getstarted/theme-color-reference#_integrated-terminal-colors
		"terminal.border": "#383838",
		"terminal.ansiBlack": "#000000",
		"terminal.ansiRed": "#ef5350",
		"terminal.ansiGreen": "#c3e88d",
		"terminal.ansiYellow": "#ffcb6b",
		"terminal.ansiBlue": "#82aaff",
		"terminal.ansiMagenta": "#c792ea",
		"terminal.ansiCyan": "#2892d7",
		"terminal.ansiWhite": "#ffffff",
		"terminal.ansiBrightBlack": "#545454",
		"terminal.ansiBrightRed": "#ef5350",
		"terminal.ansiBrightGreen": "#c3e88d",
		"terminal.ansiBrightYellow": "#ffcb6b",
		"terminal.ansiBrightBlue": "#82aaff",
		"terminal.ansiBrightMagenta": "#c792ea",
		"terminal.ansiBrightCyan": "#2892d7",
		"terminal.ansiBrightWhite": "#ffffff",
		// Welcome Page
		// https: //code.visualstudio.com/docs/getstarted/theme-color-reference#_welcome-page
		"welcomePage.buttonBackground": "#1D2325",
		"welcomePage.buttonHoverBackground": "#383838",
		"walkThrough.embeddedEditorBackground": "#1D2325",
		// Git Colors
		// https: //code.visualstudio.com/docs/getstarted/theme-color-reference#_git-colors
		"gitDecoration.modifiedResourceForeground": "#82aaff90",
		"gitDecoration.deletedResourceForeground": "#ff537090",
		"gitDecoration.untrackedResourceForeground": "#c3e88d90",
		"gitDecoration.ignoredResourceForeground": "#61616190",
		"gitDecoration.conflictingResourceForeground": "#ffcb6b90"
	},
	"tokenColors": [
		{
			"name": "Comments",
			"scope": "comment, punctuation.definition.comment",
			"settings": {
				"fontStyle": "italic",
				"foreground": "#4A4A4A"
			}
		},
		{
			"name": "Other Variables",
			"scope": "variable.other",
			"settings": {
				"foreground": "#7D9EC0"
			}
		},
		{
			"name": "Other Variables",
			"scope": "variable.other.private",
			"settings": {
				"foreground": "#647e99"
			}
		},
		{
			"name": "Variables: Bool",
			"scope": "constant.language.boolean",
			"settings": {
				"foreground": "#A6D996"
			}
		},
		{
			"name": "Base Functions",
			"scope": [
				"entity.name.function",
				"storage.type.property",
				"meta.function-call"
			],
			"settings": {
				"foreground": "#47A9FF"
			}
		},
		{
			"name": "Custom Functions",
			"scope": "support.function",
			"settings": {
				"foreground": "#20D6D6"
			}
		},
		{
			"name": "Operators",
			"scope": "keyword.operator",
			"settings": {
				"foreground": "#525252"
			}
		},
		{
			"name": "Control Statements",
			"scope": "keyword.control",
			"settings": {
				"foreground": "#C72828"
			}
		},
		{
			"name": "Predefined vars",
			"scope": [
				"variable.language",
				"storage.modifier"
			],
			"settings": {
				"foreground": "#FF9D00"
			}
		},
		{
			"name": "Comments",
			"scope": "comment",
			"settings": {
				"foreground": "#5AA641"
			}
		},
		{
			"name": "Digits",
			"scope": "constant.numeric",
			"settings": {
				"foreground": "#91C77F"
			}
		},
		{
			"name": "Digits",
			"scope": "string",
			"settings": {
				"foreground": "#D97E5F"
			}
		},
		{
			"name": "Function Manipulation",
			"scope": "meta.function-call",
			"settings": {
				"foreground": "#AB58C4"
			}
		},
		{
			"name": "Variable",
			"scope": "variable, string constant.other.placeholder",
			"settings": {
				"foreground": "#eeffffff"
			}
		},
		{
			"name": "Colors",
			"scope": "constant.other.color",
			"settings": {
				"foreground": "#ffffff"
			}
		},
		{
			"name": "Invalid",
			"scope": "invalid, invalid.illegal, invalid.broken",
			"settings": {
				// "background": "#FF5370",
				"foreground": "#ffffff"
			}
		},
		{
			"name": "Unimplemented",
			"scope": "invalid.unimplemented",
			"settings": {
				// "background": "#C3E88D",
				"foreground": "#ffffff"
			}
		},
		{
			"name": "Invalid deprecated",
			"scope": "invalid.deprecated",
			"settings": {
				// "background": "#C792EA",
				"foreground": "#ffffff"
			}
		},
		{
			"name": "Keyword, Storage",
			"scope": "keyword, storage.type, storage.modifier",
			"settings": {
				"foreground": "#C792EA"
			}
		},
		{
			"name": "Operator, Misc",
			"scope": "keyword.operator, constant.other.color, punctuation, meta.tag, punctuation.definition.tag, punctuation.separator.inheritance.php, punctuation.definition.tag.html, punctuation.definition.tag.begin.html, punctuation.definition.tag.end.html, punctuation.section.embedded, keyword.other.template, keyword.other.substitution",
			"settings": {
				"foreground": "#89DDFF"
			}
		},
		{
			"name": "Tag",
			"scope": "entity.name.tag, meta.tag.sgml, markup.deleted.git_gutter",
			"settings": {
				"foreground": "#f07178"
			}
		},
		{
			"name": "Function, Special Method, Block Level",
			"scope": "entity.name.function, meta.function-call, variable.function, support.function, keyword.other.special-method, meta.block-level",
			"settings": {
				"foreground": "#82AAFF"
			}
		},
		{
			"name": "Other Variable, String Link",
			"scope": "support.other.variable, string.other.link",
			"settings": {
				"foreground": "#f07178"
			}
		},
		{
			"name": "Number, Constant, Function Argument, Tag Attribute, Embedded",
			"scope": "constant.numeric, constant.language, support.constant, constant.character, variable.parameter, keyword.other.unit",
			"settings": {
				"foreground": "#F78C6C"
			}
		},
		{
			"name": "String, Symbols, Inherited Class, Markup Heading",
			"scope": "string, constant.other.symbol, constant.other.key, entity.other.inherited-class, markup.heading, markup.inserted.git_gutter, meta.group.braces.curly constant.other.object.key.js string.unquoted.label.js",
			"settings": {
				// "fontStyle": "normal",
				"foreground": "#C3E88D"
			}
		},
		{
			"name": "Class, Support",
			"scope": "entity.name.class, entity.name.type.class, support.type, support.class, support.orther.namespace.use.php, meta.use.php, support.other.namespace.php, markup.changed.git_gutter, support.type.sys-types",
			"settings": {
				"foreground": "#FFCB6B"
			}
		},
		{
			"name": "CSS Class and Support",
			"scope": "source.css support.type, source.sass support.type, source.scss support.type, source.less support.type, source.stylus support.type",
			"settings": {
				"foreground": "#B2CCD6"
			}
		},
		{
			"name": "Sub-methods",
			"scope": "entity.name.module.js, variable.import.parameter.js, variable.other.class.js",
			"settings": {
				"foreground": "#FF5370"
			}
		},
		{
			"name": "Language methods",
			"scope": "variable.language",
			"settings": {
				"fontStyle": "italic",
				"foreground": "#FF5370"
			}
		},
		{
			"name": "entity.name.method.js",
			"scope": "entity.name.method.js",
			"settings": {
				"foreground": "#82AAFF"
			}
		},
		{
			"name": "meta.method.js",
			"scope": "meta.class-method.js entity.name.function.js, variable.function.constructor",
			"settings": {
				"foreground": "#82AAFF"
			}
		},
		{
			"name": "Attributes",
			"scope": "entity.other.attribute-name",
			"settings": {
				"foreground": "#C792EA"
			}
		},
		{
			"name": "HTML Attributes",
			"scope": "text.html.basic entity.other.attribute-name.html, text.html.basic entity.other.attribute-name",
			"settings": {
				"fontStyle": "italic",
				"foreground": "#FFCB6B"
			}
		},
		{
			"name": "CSS Classes",
			"scope": "entity.other.attribute-name.class",
			"settings": {
				"foreground": "#FFCB6B"
			}
		},
		{
			"name": "CSS Id",
			"scope": "source.sass keyword.control",
			"settings": {
				"foreground": "#82AAFF"
			}
		},
		{
			"name": "Inserted",
			"scope": "markup.inserted",
			"settings": {
				"foreground": "#C3E88D"
			}
		},
		{
			"name": "Deleted",
			"scope": "markup.deleted",
			"settings": {
				"foreground": "#FF5370"
			}
		},
		{
			"name": "Changed",
			"scope": "markup.changed",
			"settings": {
				"foreground": "#C792EA"
			}
		},
		{
			"name": "Regular Expressions",
			"scope": "string.regexp",
			"settings": {
				"foreground": "#89DDFF"
			}
		},
		{
			"name": "Escape Characters",
			"scope": "constant.character.escape",
			"settings": {
				"foreground": "#89DDFF"
			}
		},
		{
			"name": "URL",
			"scope": "*url*, *link*, *uri*",
			"settings": {
				"fontStyle": "underline"
			}
		},
		{
			"name": "Search Results Nums",
			"scope": "constant.numeric.line-number.find-in-files - match",
			"settings": {
				"foreground": "#C17E70"
			}
		},
		{
			"name": "Search Results Lines",
			"scope": "entity.name.filename.find-in-files",
			"settings": {
				"foreground": "#C3E88D"
			}
		},
		{
			"name": "Decorators",
			"scope": "tag.decorator.js entity.name.tag.js, tag.decorator.js punctuation.definition.tag.js",
			"settings": {
				"fontStyle": "italic",
				"foreground": "#82AAFF"
			}
		},
		{
			"name": "ES7 Bind Operator",
			"scope": "source.js constant.other.object.key.js string.unquoted.label.js",
			"settings": {
				"fontStyle": "italic",
				"foreground": "#FF5370"
			}
		},
		{
			"name": "JSON Key - Level 8",
			"scope": "source.json meta meta meta meta meta meta meta meta meta meta meta meta meta meta meta meta.structure.dictionary.json string.quoted.double.json - meta meta meta meta meta meta meta meta meta meta meta meta meta meta meta meta.structure.dictionary.json meta.structure.dictionary.value.json string.quoted.double.json, source.json meta meta meta meta meta meta meta meta meta meta meta meta meta meta meta meta.structure.dictionary.json punctuation.definition.string - meta meta meta meta meta meta meta meta meta meta meta meta meta meta meta meta.structure.dictionary.json meta.structure.dictionary.value.json punctuation.definition.string",
			"settings": {
				"foreground": "#C3E88D"
			}
		},
		{
			"name": "JSON Key - Level 7",
			"scope": "source.json meta meta meta meta meta meta meta meta meta meta meta meta meta meta.structure.dictionary.json string.quoted.double.json - meta meta meta meta meta meta meta meta meta meta meta meta meta meta.structure.dictionary.json meta.structure.dictionary.value.json string.quoted.double.json, source.json meta meta meta meta meta meta meta meta meta meta meta meta meta meta.structure.dictionary.json punctuation.definition.string - meta meta meta meta meta meta meta meta meta meta meta meta meta meta.structure.dictionary.json meta.structure.dictionary.value.json punctuation.definition.string",
			"settings": {
				"foreground": "#C792EA"
			}
		},
		{
			"name": "JSON Key - Level 6",
			"scope": "source.json meta meta meta meta meta meta meta meta meta meta meta meta.structure.dictionary.json string.quoted.double.json - meta meta meta meta meta meta meta meta meta meta meta meta.structure.dictionary.json meta.structure.dictionary.value.json string.quoted.double.json, source.json meta meta meta meta meta meta meta meta meta meta meta meta.structure.dictionary.json punctuation.definition.string - meta meta meta meta meta meta meta meta meta meta meta meta.structure.dictionary.json meta.structure.dictionary.value.json punctuation.definition.string",
			"settings": {
				"foreground": "#f07178"
			}
		},
		{
			"name": "JSON Key - Level 5",
			"scope": "source.json meta meta meta meta meta meta meta meta meta meta.structure.dictionary.json string.quoted.double.json - meta meta meta meta meta meta meta meta meta meta.structure.dictionary.json meta.structure.dictionary.value.json string.quoted.double.json, source.json meta meta meta meta meta meta meta meta meta meta.structure.dictionary.json punctuation.definition.string - meta meta meta meta meta meta meta meta meta meta.structure.dictionary.json meta.structure.dictionary.value.json punctuation.definition.string",
			"settings": {
				"foreground": "#82AAFF"
			}
		},
		{
			"name": "JSON Key - Level 4",
			"scope": "source.json meta meta meta meta meta meta meta meta.structure.dictionary.json string.quoted.double.json - meta meta meta meta meta meta meta meta.structure.dictionary.json meta.structure.dictionary.value.json string.quoted.double.json, source.json meta meta meta meta meta meta meta meta.structure.dictionary.json punctuation.definition.string - meta meta meta meta meta meta meta meta.structure.dictionary.json meta.structure.dictionary.value.json punctuation.definition.string",
			"settings": {
				"foreground": "#C17E70"
			}
		},
		{
			"name": "JSON Key - Level 3",
			"scope": "source.json meta meta meta meta meta meta.structure.dictionary.json string.quoted.double.json - meta meta meta meta meta meta.structure.dictionary.json meta.structure.dictionary.value.json string.quoted.double.json, source.json meta meta meta meta meta meta.structure.dictionary.json punctuation.definition.string - meta meta meta meta meta meta.structure.dictionary.json meta.structure.dictionary.value.json punctuation.definition.string",
			"settings": {
				"foreground": "#FF5370"
			}
		},
		{
			"name": "JSON Key - Level 2",
			"scope": "source.json meta meta meta meta.structure.dictionary.json string.quoted.double.json - meta meta meta meta.structure.dictionary.json meta.structure.dictionary.value.json string.quoted.double.json, source.json meta meta meta meta.structure.dictionary.json punctuation.definition.string - meta meta meta meta.structure.dictionary.json meta.structure.dictionary.value.json punctuation.definition.string",
			"settings": {
				"foreground": "#F78C6C"
			}
		},
		{
			"name": "JSON Key - Level 1",
			"scope": "source.json meta meta.structure.dictionary.json string.quoted.double.json - meta meta.structure.dictionary.json meta.structure.dictionary.value.json string.quoted.double.json, source.json meta meta.structure.dictionary.json punctuation.definition.string - meta meta.structure.dictionary.json meta.structure.dictionary.value.json punctuation.definition.string",
			"settings": {
				"foreground": "#FFCB6B"
			}
		},
		{
			"name": "JSON Key - Level 0",
			"scope": "source.json meta.structure.dictionary.json string.quoted.double.json - meta.structure.dictionary.json meta.structure.dictionary.value.json string.quoted.double.json, source.json meta.structure.dictionary.json punctuation.definition.string - meta.structure.dictionary.json meta.structure.dictionary.value.json punctuation.definition.string",
			"settings": {
				"foreground": "#C792EA"
			}
		},
		{
			"name": "Markdown - Plain",
			"scope": "text.html.markdown, punctuation.definition.list_item.markdown",
			"settings": {
				"foreground": "#eeffffff"
			}
		},
		{
			"name": "Markdown - Markup Raw Inline",
			"scope": "text.html.markdown markup.raw.inline",
			"settings": {
				"foreground": "#FF5370"
			}
		},
		{
			"name": "Markdown - Line Break",
			"scope": "text.html.markdown meta.dummy.line-break",
			"settings": {
				"foreground": "#65737e"
			}
		},
		{
			"name": "Markdown - Heading",
			"scope": "markdown.heading, markup.heading | markup.heading entity.name, markup.heading.markdown punctuation.definition.heading.markdown",
			"settings": {
				"foreground": "#C3E88D"
			}
		},
		{
			"name": "Markup - Italic",
			"scope": "markup.italic",
			"settings": {
				"fontStyle": "italic",
				"foreground": "#f07178"
			}
		},
		{
			"name": "Markup - Bold",
			"scope": "markup.bold",
			"settings": {
				"fontStyle": "bold",
				"foreground": "#f07178"
			}
		},
		{
			"name": "Markup - Underline",
			"scope": "markup.underline",
			"settings": {
				"fontStyle": "underline",
				"foreground": "#F78C6C"
			}
		},
		{
			"name": "Markup - Strike",
			"scope": "markup.strike",
			"settings": {
				// "fontStyle": "strike",
				"foreground": "#C17E70"
			}
		},
		{
			"name": "Markdown - Blockquote",
			"scope": "markup.quote, punctuation.definition.blockquote.markdown",
			"settings": {
				"fontStyle": "italic",
				"foreground": "#89DDFF"
			}
		},
		{
			"name": "Markup - Quote",
			"scope": "markup.quote",
			"settings": {
				"fontStyle": "italic",
				"foreground": "#89DDFF"
			}
		},
		{
			"name": "Markdown - Link",
			"scope": "string.other.link.title.markdown",
			"settings": {
				"fontStyle": "underline",
				"foreground": "#82AAFF"
			}
		},
		{
			"name": "Markup - Raw Block",
			"scope": "markup.raw.block",
			"settings": {
				"foreground": "#C792EA"
			}
		},
		{
			"name": "Markdown - Raw Block Fenced",
			"scope": "markup.raw.block.fenced.markdown",
			"settings": {
				// "background": "#00000050",
				"foreground": "#eeffffff"
			}
		},
		{
			"name": "Markdown - Fenced Bode Block",
			"scope": "punctuation.definition.fenced.markdown, variable.language.fenced.markdown",
			"settings": {
				// "background": "#00000050",
				"foreground": "#65737e"
			}
		},
		{
			"name": "Markdown - Fenced Language",
			"scope": "variable.language.fenced.markdown",
			"settings": {
				"fontStyle": "",
				"foreground": "#65737e"
			}
		},
		{
			"name": "Markdown - Separator",
			"scope": "meta.separator",
			"settings": {
				// "background": "#00000050",
				"fontStyle": "bold",
				"foreground": "#65737e"
			}
		},
		{
			"name": "Markup - Table",
			"scope": "markup.table",
			"settings": {
				// "background": "#FF53701a",
				"foreground": "#FF5370"
			}
		},
		{
			"name": "AceJump Label - Blue",
			"scope": "acejump.label.blue",
			"settings": {
				// "background": "#82AAFF",
				"foreground": "#ffffff"
			}
		},
		{
			"name": "AceJump Label - Green",
			"scope": "acejump.label.green",
			"settings": {
				// "background": "#C3E88D",
				"foreground": "#ffffff"
			}
		},
		{
			"name": "AceJump Label - Orange",
			"scope": "acejump.label.orange",
			"settings": {
				// "background": "#F78C6C",
				"foreground": "#ffffff"
			}
		},
		{
			"name": "AceJump Label - Purple",
			"scope": "acejump.label.purple",
			"settings": {
				// "background": "#C792EA",
				"foreground": "#ffffff"
			}
		},
		{
			"name": "SublimeLinter Warning",
			"scope": "sublimelinter.mark.warning",
			"settings": {
				"foreground": "#FFCB6B"
			}
		},
		{
			"name": "SublimeLinter Gutter Mark",
			"scope": "sublimelinter.gutter-mark",
			"settings": {
				"foreground": "#ffffff"
			}
		},
		{
			"name": "SublimeLinter Error",
			"scope": "sublimelinter.mark.error",
			"settings": {
				"foreground": "#FF5370"
			}
		},
		{
			"name": "SublimeLinter Annotation",
			"scope": "sublimelinter.annotations",
			"settings": {
				// "background": "#C17E70"
			}
		},
		{
			"name": "GitGutter Ignored",
			"scope": "markup.ignored.git_gutter",
			"settings": {
				"foreground": "#65737e"
			}
		},
		{
			"name": "GitGutter Untracked",
			"scope": "markup.untracked.git_gutter",
			"settings": {
				"foreground": "#65737e"
			}
		},
		{
			"name": "GitGutter Inserted",
			"scope": "markup.inserted.git_gutter",
			"settings": {
				"foreground": "#C3E88D"
			}
		},
		{
			"name": "GitGutter Changed",
			"scope": "markup.changed.git_gutter",
			"settings": {
				"foreground": "#FFCB6B"
			}
		},
		{
			"name": "GitGutter Deleted",
			"scope": "markup.deleted.git_gutter",
			"settings": {
				"foreground": "#FF5370"
			}
		},
		{
			"name": "Bracket Curly",
			"scope": "brackethighlighter.default",
			"settings": {
				"foreground": "#B2CCD6"
			}
		},
		{
			"name": "Bracket Quote",
			"scope": "brackethighlighter.quote",
			"settings": {
				"foreground": "#C3E88D"
			}
		},
		{
			"name": "Bracket Unmatched",
			"scope": "brackethighlighter.unmatched",
			"settings": {
				"foreground": "#FF5370"
			}
		},
		{
			"scope": "token.info-token",
			"settings": {
				"foreground": "#6796e6"
			}
		},
		{
			"scope": "token.warn-token",
			"settings": {
				"foreground": "#cd9731"
			}
		},
		{
			"scope": "token.error-token",
			"settings": {
				"foreground": "#f44747"
			}
		},
		{
			"scope": "token.debug-token",
			"settings": {
				"foreground": "#b267e6"
			}
		}
	]
}