{
	"name": "Sunset Theme",
	"type": "dark",
	"colors": {
		"activityBar.background": "#121110",
		"activityBar.foreground": "#fcfcf2",
		"activityBarBadge.background": "#ffbd14",
		"activityBarBadge.foreground": "#262327",
		"button.background": "#ffbd14",
		"button.foreground": "#121110",
		"button.hoverBackground": "#ffcc23",
		"contrastBorder": "#262327a0",
		"dropdown.background": "#262327",
		"editor.background": "#121110",
		"editor.foreground": "#d4d4d4",
		"editor.lineHighlightBackground": "#262327",
		"editor.lineHighlightBorder": "#262327",
		"editor.selectionBackground": "#ffbd1460",
		"editor.selectionHighlightBackground": "#ffbd1430",
		"editorCursor.foreground": "#ffbd14",
		"editorGroup.background": "#121110",
		"editorGroupHeader.tabsBackground": "#121110",
		"editorGutter.addedBackground": "#52914a",
		"editorGutter.deletedBackground": "#d10000",
		"editorGutter.modifiedBackground": "#00638a",
		"editorHoverWidget.background": "#262327",
		"editorHoverWidget.border": "#262327a0",
		"editorIndentGuide.background": "#262327",
		"editorLink.activeForeground": "#ffbd14",
		"editorOverviewRuler.border": "#26232700",
		"editorSuggestWidget.background": "#121110",
		"editorSuggestWidget.border": "#262327a0",
		"editorSuggestWidget.selectedBackground": "#262327",
		"extensionButton.prominentBackground": "#ffbd14",
		"extensionButton.prominentForeground": "#121110",
		"extensionButton.prominentHoverBackground": "#ffcc23",
		"focusBorder": "#26232700",
		"foreground": "#fcfcf2",
		"input.background": "#262327",
		"inputOption.activeBorder": "#ffbd14",
		"inputValidation.errorBackground": "#d10000",
		"inputValidation.infoBackground": "#00638a",
		"inputValidation.warningBackground": "#ff8928",
		"list.activeSelectionBackground": "#ffbd14",
		"list.activeSelectionForeground": "#121110",
		"list.dropBackground": "#383b3d",
		"list.focusBackground": "#262327",
		"list.highlightForeground": "#ffbd14",
		"list.hoverBackground": "#262327",
		"list.inactiveSelectionBackground": "#ffbd1430",
		"list.inactiveSelectionForeground": "#fcfcf2",
		"notification.background": "#121110",
		"notification.buttonBackground": "#ffbd14",
		"notification.buttonForeground": "#121110",
		"notification.errorBackground": "#d10000",
		"notification.foreground": "#fcfcf2",
		"notification.infoBackground": "#00638a",
		"notification.warningBackground": "#ff8928",
		"panelTitle.activeBorder": "#ffbd14",
		"peekView.border": "#fcfcf230",
		"peekViewEditor.background": "#1e1e1eff",
		"peekViewEditor.matchHighlightBackground": "#ffbd1420",
		"peekViewResult.background": "#121110",
		"peekViewResult.matchHighlightBackground": "#ffbd1420",
		"peekViewResult.selectionBackground": "#262327",
		"peekViewTitle.background": "#262327",
		"peekViewTitleDescription.foreground": "#fcfcf2",
		"peekViewTitleLabel.foreground": "#fcfcf2",
		"pickerGroup.foreground": "#ffbd14",
		"progressBar.background": "#ffbd14",
		"scrollbar.shadow": "#262327a0",
		"scrollbarSlider.activeBackground": "#ffbd14",
		"scrollbarSlider.hoverBackground": "#ffbd14",
		"selection.background": "#ffbd1460",
		"sideBar.background": "#121110",
		"sideBarSectionHeader.background": "#262327",
		"statusBar.background": "#121110",
		"statusBar.debuggingBackground": "#ffbd14",
		"statusBar.debuggingForeground": "#121110",
		"statusBar.noFolderBackground": "#121110",
		"statusBarItem.activeBackground": "#ffbd14",
		"statusBarItem.hoverBackground": "#ffbd1430",
		"tab.activeBackground": "#121110",
		"tab.inactiveBackground": "#121110",
		"titleBar.activeBackground": "#121110"
	},
	"tokenColors": [
		{
			"settings": {
				"foreground": "#d4d4d4ff",
				"background": "#1e1e1eff"
			}
		},
		{
			"name": "Other Variables",
			"scope": "variable.other",
			"settings": {
				"foreground": "#7D9EC0"
			}
		},
		{
			"name": "Other Variables",
			"scope": "variable.other.private",
			"settings": {
				"foreground": "#647e99"
			}
		},
		{
			"name": "Variables: Bool",
			"scope": "constant.language.boolean",
			"settings": {
				"foreground": "#A6D996"
			}
		},
		{
			"name": "Base Functions",
			"scope": [
				"entity.name.function",
				"storage.type.property",
				"meta.function-call"
			],
			"settings": {
				"foreground": "#47A9FF"
			}
		},
		{
			"name": "Custom Functions",
			"scope": "support.function",
			"settings": {
				"foreground": "#20D6D6"
			}
		},
		{
			"name": "Operators",
			"scope": "keyword.operator",
			"settings": {
				"foreground": "#525252"
			}
		},
		{
			"name": "Control Statements",
			"scope": "keyword.control",
			"settings": {
				"foreground": "#C72828"
			}
		},
		{
			"name": "Predefined vars",
			"scope": [
				"variable.language",
				"storage.modifier"
			],
			"settings": {
				"foreground": "#FF9D00"
			}
		},
		{
			"name": "Comments",
			"scope": "comment",
			"settings": {
				"foreground": "#5AA641"
			}
		},
		{
			"name": "Digits",
			"scope": "constant.numeric",
			"settings": {
				"foreground": "#91C77F"
			}
		},
		{
			"name": "Digits",
			"scope": "string",
			"settings": {
				"foreground": "#D97E5F"
			}
		},
		{
			"name": "Function Manipulation",
			"scope": "meta.function-call",
			"settings": {
				"foreground": "#AB58C4"
			}
		},
		{
			"scope": "emphasis",
			"settings": {
				"fontStyle": "italic"
			}
		},
		{
			"scope": "strong",
			"settings": {
				"fontStyle": "bold"
			}
		},
		{
			"scope": "header",
			"settings": {
				"foreground": "#000080"
			}
		},
		{
			"scope": "comment",
			"settings": {
				"foreground": "#6d6d6d",
				"fontStyle": "italic"
			}
		},
		{
			"scope": [
				"constant.language",
				"constant.character",
				"constant.other"
			],
			"settings": {
				"foreground": "#eac66c"
			}
		},
		{
			"scope": [
				"constant.numeric"
			],
			"settings": {
				"foreground": "#b5cea8"
			}
		},
		{
			"scope": "constant.regexp",
			"settings": {
				"foreground": "#646695"
			}
		},
		{
			"scope": "entity.name.tag",
			"settings": {
				"foreground": "#eac66c"
			}
		},
		{
			"scope": "entity.name.tag.css",
			"settings": {
				"foreground": "#d7ba7d"
			}
		},
		{
			"scope": "entity.other.attribute-name",
			"settings": {
				"foreground": "#9cdcfe"
			}
		},
		{
			"scope": [
				"entity.other.attribute-name.class.css",
				"entity.other.attribute-name.class.mixin.css",
				"entity.other.attribute-name.id.css",
				"entity.other.attribute-name.parent-selector.css",
				"entity.other.attribute-name.pseudo-class.css",
				"entity.other.attribute-name.pseudo-element.css",
				"source.css.less entity.other.attribute-name.id",
				"entity.other.attribute-name.attribute.scss",
				"entity.other.attribute-name.scss"
			],
			"settings": {
				"foreground": "#d7ba7d"
			}
		},
		{
			"scope": "invalid",
			"settings": {
				"foreground": "#f44747"
			}
		},
		{
			"scope": "markup.underline",
			"settings": {
				"fontStyle": "underline"
			}
		},
		{
			"scope": "markup.bold",
			"settings": {
				"fontStyle": "bold",
				"foreground": "#eac66c"
			}
		},
		{
			"scope": "markup.heading",
			"settings": {
				"fontStyle": "bold",
				"foreground": "#9bb46e"
			}
		},
		{
			"scope": "markup.italic",
			"settings": {
				"fontStyle": "italic"
			}
		},
		{
			"scope": "markup.inserted",
			"settings": {
				"foreground": "#b5cea8"
			}
		},
		{
			"scope": "markup.deleted",
			"settings": {
				"foreground": "#BF9277"
			}
		},
		{
			"scope": "markup.changed",
			"settings": {
				"foreground": "#eac66c"
			}
		},
		{
			"scope": "beginning.punctuation.definition.quote.markdown",
			"settings": {
				"foreground": "#608b4e"
			}
		},
		{
			"scope": "beginning.punctuation.definition.list.markdown",
			"settings": {
				"foreground": "#6796e6"
			}
		},
		{
			"scope": "markup.inline.raw",
			"settings": {
				"foreground": "#BF9277"
			}
		},
		{
			"scope": "meta.selector",
			"settings": {
				"foreground": "#d7ba7d"
			}
		},
		{
			"name": "brackets of XML/HTML tags",
			"scope": "punctuation.definition.tag",
			"settings": {
				"foreground": "#808080"
			}
		},
		{
			"scope": "meta.preprocessor",
			"settings": {
				"foreground": "#eac66c"
			}
		},
		{
			"scope": "meta.preprocessor.string",
			"settings": {
				"foreground": "#BF9277"
			}
		},
		{
			"scope": "meta.preprocessor.numeric",
			"settings": {
				"foreground": "#b5cea8"
			}
		},
		{
			"scope": "meta.structure.dictionary.key.python",
			"settings": {
				"foreground": "#9cdcfe"
			}
		},
		{
			"scope": "meta.diff.header",
			"settings": {
				"foreground": "#eac66c"
			}
		},
		{
			"scope": "storage",
			"settings": {
				"foreground": "#eac66c"
			}
		},
		{
			"scope": "storage.type",
			"settings": {
				"foreground": "#9CDCFE"
			}
		},
		{
			"scope": "storage.modifier",
			"settings": {
				"foreground": "#eac66c"
			}
		},
		{
			"scope": "string",
			"settings": {
				"foreground": "#C99677"
			}
		},
		{
			"scope": "string.tag",
			"settings": {
				"foreground": "#C99677"
			}
		},
		{
			"scope": "string.value",
			"settings": {
				"foreground": "#C99677"
			}
		},
		{
			"scope": "string.regexp",
			"settings": {
				"foreground": "#d16969"
			}
		},
		{
			"name": "JavaScript string interpolation ${}",
			"scope": [
				"punctuation.definition.template-expression.begin.js",
				"punctuation.definition.template-expression.begin.ts",
				"punctuation.definition.template-expression.end.ts",
				"punctuation.definition.template-expression.end.js"
			],
			"settings": {
				"foreground": "#eac66c"
			}
		},
		{
			"scope": [
				"support.type.vendored.property-name",
				"support.type.property-name",
				"variable.css",
				"variable.scss",
				"variable.other.less",
				"keyword.other.class.cs"
			],
			"settings": {
				"foreground": "#9cdcfe"
			}
		},
		{
			"scope": "keyword",
			"settings": {
				"foreground": "#eac66c"
			}
		},
		{
			"scope": "keyword.control",
			"settings": {
				"foreground": "#F7397D"
			}
		},
		{
			"scope": "keyword.operator",
			"settings": {
				"foreground": "#9CDCFE"
			}
		},
		{
			"scope": [
				"keyword.operator.sigil.rust",
				"keyword.operator.address.go",
				"keyword.operator.misc.rust"
			],
			"settings": {
				"foreground": "#9CDCFE"
			}
		},
		{
			"scope": [
				"keyword.operator.new",
				"keyword.operator.expression",
				"keyword.operator.cast",
				"keyword.operator.sizeof",
				"keyword.operator.logical.python",
				"support.function.builtin.go",
				"support.function.core.rust"
			],
			"settings": {
				"foreground": "#eac66c"
			}
		},
		{
			"scope": "keyword.other.unit",
			"settings": {
				"foreground": "#b5cea8"
			}
		},
		{
			"scope": [
				"punctuation.section.embedded.begin.metatag.php",
				"punctuation.section.embedded.end.metatag.php",
				"punctuation.separator.pointer-access.c"
			],
			"settings": {
				"foreground": "#eac66c"
			}
		},
		{
			"name": "Parenthesis",
			"scope": [
				"punctuation.separator.namespace.access.cpp",
				"variable.parameter"
			],
			"settings": {
				"foreground": "#FA9F50",
				"fontStyle": "italic"
			}
		},
		{
			"name": "Function type",
			"scope": [
				"storage.type.function.js",
				"storage.type.function.python",
				"keyword.function.go",
				"keyword.control.def.ruby"
			],
			"settings": {
				"foreground": "#9CDCFE",
				"fontStyle": "italic"
			}
		},
		{
			"scope": "support.function.git-rebase",
			"settings": {
				"foreground": "#9cdcfe"
			}
		},
		{
			"scope": "constant.sha.git-rebase",
			"settings": {
				"foreground": "#b5cea8"
			}
		},
		{
			"name": "coloring of the Java import and package identifiers",
			"scope": [
				"storage.modifier.import.java",
				"storage.modifier.package.java"
			],
			"settings": {
				"foreground": "#d4d4d4"
			}
		},
		{
			"name": "this.self",
			"scope": [
				"variable.language",
				"variable.parameter.function.language.special.self.python",
				"keyword.other.this.cs"
			],
			"settings": {
				"foreground": "#9CDCFE"
			}
		},
		{
			"name": "Function declarations",
			"scope": [
				"entity.name.function",
				"entity.name.type.type-parameter.cs",
				"support.function",
				"support.constant.handlebars",
				"meta.function-call.generic.python"
			],
			"settings": {
				"foreground": "#ABD166"
			}
		},
		{
			"name": "Types declaration and references",
			"scope": [
				"meta.return-type",
				"support.class",
				"support.type",
				"entity.name.class",
				"storage.type.cs",
				"storage.type.generic.cs",
				"storage.type.modifier.cs",
				"storage.type.variable.cs",
				"keyword.operator.type.annotation.ts",
				"storage.type.annotation.java",
				"storage.type.generic.java",
				"storage.type.java",
				"storage.type.object.array.java",
				"storage.type.primitive.array.java",
				"storage.type.primitive.java",
				"storage.type.token.java",
				"storage.type.groovy",
				"storage.type.annotation.groovy",
				"storage.type.parameters.groovy",
				"storage.type.generic.groovy",
				"storage.type.object.array.groovy",
				"storage.type.primitive.array.groovy",
				"storage.type.primitive.groovy"
			],
			"settings": {
				"foreground": "#9CDCFE"
			}
		},
		{
			"name": "Class definitions",
			"scope": [
				"entity.name.type"
			],
			"settings": {
				"foreground": "#ffbd14"
			}
		},
		{
			"name": "Inherited classes",
			"scope": [
				"entity.other.inherited-class"
			],
			"settings": {
				"foreground": "#ffbd14",
				"fontStyle": "italic"
			}
		},
		{
			"name": "Types declaration and references, TS grammar specific",
			"scope": [
				"meta.type.cast.expr",
				"meta.type.new.expr",
				"support.constant.math",
				"support.constant.dom",
				"support.constant.json"
			],
			"settings": {
				"foreground": "#9bb46e"
			}
		},
		{
			"name": "Variable and parameter name",
			"scope": [
				"variable",
				"meta.definition.variable.name",
				"support.variable"
			],
			"settings": {
				"foreground": "#D6D6D6"
			}
		},
		{
			"name": "Object keys, TS grammar specific",
			"scope": [
				"meta.object-literal.key",
				"meta.object-literal.key entity.name.function"
			],
			"settings": {
				"foreground": "#9CDCFE"
			}
		},
		{
			"name": "CSS property value",
			"scope": [
				"support.constant.property-value",
				"support.constant.font-name",
				"support.constant.media-type",
				"support.constant.media",
				"constant.other.color.rgb-value",
				"constant.other.rgb-value",
				"support.constant.color"
			],
			"settings": {
				"foreground": "#BF9277"
			}
		},
		{
			"scope": "token.info-token",
			"settings": {
				"foreground": "#6796e6"
			}
		},
		{
			"scope": "token.warn-token",
			"settings": {
				"foreground": "#cd9731"
			}
		},
		{
			"scope": "token.error-token",
			"settings": {
				"foreground": "#f44747"
			}
		},
		{
			"scope": "token.debug-token",
			"settings": {
				"foreground": "#b267e6"
			}
		}
	]
}